ParteA/simulation/qsim/lab_parteA.msim.vcd
$comment
	File created using the following command:
		vcd file lab_parteA.msim.vcd -direction
$end
$date
	Fri Nov 11 12:57:34 2022
$end
$version
	ModelSim Version 10.1d
$end
$timescale
	1ps
$end
$scope module lab_parteA_vlg_vec_tst $end
$var reg 1 ! SW1 $end
$var reg 1 " SW2 $end
$var wire 1 # LED $end
$var wire 1 $ sampler $end
$scope module i1 $end
$var wire 1 % gnd $end
$var wire 1 & vcc $end
$var wire 1 ' unknown $end
$var tri1 1 ( devclrn $end
$var tri1 1 ) devpor $end
$var tri1 1 * devoe $end
$var wire 1 + LED~output_o $end
$var wire 1 , SW2~input_o $end
$var wire 1 - SW1~input_o $end
$var wire 1 . LED~0_combout $end
$upscope $end
$upscope $end
$enddefinitions $end
#0
$dumpvars
0!
0"
1#
x$
0%
1&
x'
1(
1)
1*
1+
0,
0-
0.
$end
#80000
1!
1-
0$
#200000
1"
1,
1$
1.
0+
0#
#260000
0!
0-
0$
0.
1+
1#
#300000
0"
0,
1$
#380000
1!
1-
0$
#440000
1"
1,
1$
1.
0+
0#
#480000
0!
0-
0$
0.
1+
1#
#640000
0"
0,
1$
